…
case_all
```

    ## # A tibble: 47 × 4
    ## # Groups:   city_state [47]
    ##    city_state         OR OR_lower OR_upper
    ##    <chr>           <dbl>    <dbl>    <dbl>
    ##  1 Albuquerque, NM 1.77     0.831    3.76 
    ##  2 Atlanta, GA     1.00     0.684    1.46 
    ##  3 Baltimore, MD   0.426    0.325    0.558
    ##  4 Baton Rouge, LA 0.381    0.209    0.695
    ##  5 Birmingham, AL  0.870    0.574    1.32 
    ##  6 Boston, MA      0.674    0.356    1.28 
    ##  7 Buffalo, NY     0.521    0.290    0.935
    ##  8 Charlotte, NC   0.884    0.557    1.40 
    ##  9 Chicago, IL     0.410    0.336    0.501
    ## 10 Cincinnati, OH  0.400    0.236    0.677
    ## # ℹ 37 more rows
…
``` r
birthweight=birthweight|>
  mutate(malform=factor(malform),
         mrace=factor(mrace),
         frace=factor(frace),
         babysex=factor(babysex))|>
  drop_na()


birthweight
```

    ## # A tibble: 4,342 × 20
    ##    babysex bhead blength   bwt delwt fincome frace gaweeks malform menarche
    ##    <fct>   <dbl>   <dbl> <dbl> <dbl>   <dbl> <fct>   <dbl> <fct>      <dbl>
    ##  1 2          34      51  3629   177      35 1        39.9 0             13
    ##  2 1          34      48  3062   156      65 2        25.9 0             14
    ##  3 2          36      50  3345   148      85 1        39.9 0             12
    ##  4 1          34      52  3062   157      55 1        40   0             14
    ##  5 2          34      52  3374   156       5 1        41.6 0             13
    ##  6 1          33      52  3374   129      55 1        40.7 0             12
    ##  7 2          33      46  2523   126      96 2        40.3 0             14
    ##  8 2          33      49  2778   140       5 1        37.4 0             12
    ##  9 1          36      52  3515   146      85 1        40.3 0             11
    ## 10 1          33      50  3459   169      75 2        40.7 0             12
    ## # ℹ 4,332 more rows
    ## # ℹ 10 more variables: mheight <dbl>, momage <dbl>, mrace <fct>, parity <dbl>,
    ## #   pnumlbw <dbl>, pnumsga <dbl>, ppbmi <dbl>, ppwt <dbl>, smoken <dbl>,
    ## #   wtgain <dbl>
…
